<?xml version="1.0" encoding="UTF-8"?>
<svg width="60px" height="60px" viewBox="0 0 60 60" version="1.1" xmlns="http://www.w3.org/2000/svg" xmlns:xlink="http://www.w3.org/1999/xlink">
    <!-- Generator: Sketch 53.2 (72643) - https://sketchapp.com -->
    <title>path-1-path</title>
    <desc>Created with Sketch.</desc>
    <defs>
        <path d="M31,0.987499875 C14.4245539,0.987499875 0.987499875,14.4245539 0.987499875,31 C0.987499875,47.5754461 14.4245539,61.0125003 31,61.0125003 C47.5754461,61.0125003 61.0125003,47.5754461 61.0125003,31 C60.9937052,14.4323452 47.5676548,1.00629474 31,0.987499875 L31,0.987499875 Z M31,56.9198865 C16.684842,56.9198865 5.08011352,45.3151579 5.08011352,31 C5.08011352,16.684842 16.684842,5.08011352 31,5.08011352 C45.3151579,5.08011352 56.9198865,16.684842 56.9198865,31 C56.9198865,45.3151579 45.3151579,56.9198865 31,56.9198865 Z M39.0747268,20.0317954 L31.3151313,28.1078865 L22.8693409,19.9772272 C22.3479089,19.4442458 21.5778467,19.2370716 20.859377,19.4364752 C20.1409073,19.6358789 19.5877669,20.2102939 19.4156076,20.9357742 C19.2434483,21.6612546 19.4795236,22.4229535 20.0317954,22.9239091 L28.4202893,31 L20.0317954,39.0760909 C19.2182028,39.8594939 19.1931689,41.15393 19.975863,41.9682047 C20.3598026,42.3718796 20.8934751,42.5989744 21.4505682,42.5957388 C21.9797905,42.5953994 22.4883008,42.3900396 22.8693409,42.0227727 L31.3151313,33.8921135 L39.0747268,41.9682047 C39.8585105,42.7814104 41.1529384,42.8058335 41.9668404,42.0227727 C42.7808201,41.2397508 42.8064648,39.9453062 42.024137,39.1306591 L34.2086091,31 L42.024137,22.8693409 C42.8064648,22.0546939 42.7808201,20.7602492 41.9668404,19.9772272 C41.1529384,19.1941665 39.8585105,19.2185897 39.0747268,20.0317954 Z" id="path-1"></path>
    </defs>
    <g id="PRINCIPAL" stroke="none" stroke-width="1" fill="none" fill-rule="evenodd">
        <g id="VIDEO" transform="translate(-112.000000, -65.000000)">
            <g id="ico/par/Close-1" transform="translate(111.000000, 64.000000)">
                <mask id="mask-2" fill="white">
                    <use xlink:href="#path-1"></use>
                </mask>
                <use fill="#8D4AAE" xlink:href="#path-1"></use>
            </g>
        </g>
    </g>
</svg>