<?xml version="1.0" encoding="UTF-8"?>
<svg width="19px" height="18px" viewBox="0 0 19 18" version="1.1" xmlns="http://www.w3.org/2000/svg" xmlns:xlink="http://www.w3.org/1999/xlink">
    <!-- Generator: Sketch 53.2 (72643) - https://sketchapp.com -->
    <title>Shape</title>
    <desc>Created with Sketch.</desc>
    <g id="PRINCIPAL" stroke="none" stroke-width="1" fill="none" fill-rule="evenodd">
        <g id="CONTACTO-V2" transform="translate(-140.000000, -612.000000)" fill="#002857">
            <g id="Phone" transform="translate(140.000000, 608.000000)">
                <g id="Icon" transform="translate(0.000000, 4.000000)">
                    <path d="M18.9913095,14.2057127 C19.0305754,14.4986268 18.9368438,14.7519912 18.708848,14.9682779 L16.0336973,17.4858555 C15.9133662,17.6131557 15.7563024,17.7206811 15.5612393,17.8096677 C15.3674429,17.8986542 15.1761797,17.9555067 14.9887165,17.9814611 C14.9747834,17.9814611 14.9342509,17.9851689 14.8671188,17.9913485 C14.7999867,17.9975282 14.7138549,18 14.6061902,18 C14.3515949,18 13.9386692,17.9592145 13.3686797,17.8764076 C12.7986902,17.7936007 12.1020363,17.5909091 11.2774515,17.265861 C10.4528667,16.9420489 9.51681729,16.4563307 8.47183653,15.8074705 C7.42558914,15.1598462 6.31220964,14.2699808 5.13296469,13.1378742 C4.19438198,12.260368 3.41666297,11.4211755 2.79980766,10.6215325 C2.18295235,9.82065367 1.68642816,9.08033507 1.31150174,8.39934084 C0.935308664,7.71958253 0.654113842,7.10285636 0.466650628,6.55039824 C0.27792077,5.9967042 0.151256436,5.51963746 0.0841243393,5.11919802 C0.0169922424,4.71875858 -0.00960726778,4.40483384 0.00305916562,4.17618786 C0.0169922424,3.94754188 0.0233254591,3.82024169 0.0233254591,3.79428728 C0.0499249692,3.6163142 0.110723849,3.43586927 0.204455457,3.25048064 C0.298187064,3.06632793 0.412184964,2.9167811 0.546449158,2.80307608 L3.22159989,0.266959626 C3.40906311,0.0889865422 3.62439247,0 3.86505471,0 C4.03985149,0 4.19438198,0.0482010437 4.32737953,0.143367207 C4.46164372,0.23853337 4.57564162,0.355946169 4.66937323,0.495605603 L6.82266691,4.36652019 C6.94299802,4.57044768 6.97593075,4.79291403 6.92273173,5.03391925 C6.86953271,5.2761604 6.75553481,5.47885196 6.58073803,5.64446581 L5.59528951,6.5788245 C5.56869,6.60354298 5.54462378,6.64556441 5.52435748,6.70241692 C5.50409119,6.75926943 5.49395804,6.80747048 5.49395804,6.84578413 C5.54842371,7.11274375 5.66875482,7.41801703 5.85621804,7.76036803 C6.01708174,8.06564131 6.26534384,8.43765449 6.60100432,8.87640758 C6.93539816,9.31516067 7.41165606,9.82065367 8.02851136,10.3916506 C8.63270024,10.9762428 9.16849037,11.4310629 9.63841505,11.756111 C10.1070731,12.0799231 10.4997325,12.3184565 10.8151267,12.4704751 C11.1292543,12.6237297 11.3711831,12.7151881 11.5383801,12.7473222 L11.7904421,12.7942873 C11.8170416,12.7942873 11.8601075,12.7856358 11.9209063,12.765861 C11.9817052,12.7473222 12.0247711,12.7250755 12.0513706,12.6991211 L13.1976828,11.592969 C13.4396117,11.3902774 13.7208065,11.2889316 14.0425339,11.2889316 C14.2705297,11.2889316 14.4516597,11.3260093 14.5859239,11.4026366 L14.6061902,11.4026366 L18.4871854,13.5766273 C18.7696469,13.7422411 18.9368438,13.9511123 18.9913095,14.2057127 L18.9913095,14.2057127 Z" id="Shape"></path>
                </g>
            </g>
        </g>
    </g>
</svg>